;
; BIND data file for local loopback interface
;
$TTL	604800
@	IN	SOA	mco.lbsg.net. root.mco.lbsg.net. (
			      3		; Serial
			 604800		; Refresh
			  86400		; Retry
			2419200		; Expire
			 604800 )	; Negative Cache TTL
;

mco.lbsg.net.	IN	A	192.168.1.8
mco.lbsg.net.	IN	NS	mco.lbsg.net.
